…
``` r
sim <- trial_sim(schedule, enrol, rxrate, nevent, adjust=TRUE, trt=c("Sip-T","placebo"),death.prop=0.1,
censor.prop=0.1,n.rep=1000)
```

The function `sim.km()` extracts both the simulated values for KM median
by iteration and treatment group, and associated summary statistics by
treatment group. This information is shown below.

``` r
sim.km <- calc_km(sim)
sim.km
#> $sim.km
#> # A tibble: 2,000 x 3
#>      rep rx      median
#>    <int> <chr>    <dbl>
#>  1     1 placebo     56
#>  2     1 Sip-T       68
#>  3     2 placebo     44
#>  4     2 Sip-T       52
#>  5     3 placebo     40
#>  6     3 Sip-T       56
#>  7     4 placebo     44
#>  8     4 Sip-T       48
#>  9     5 placebo     24
#> 10     5 Sip-T       56
#> # ... with 1,990 more rows
…
